%YAML 1.1
%TAG !u! tag:unity3d.com,2011:
--- !u!1045 &1
EditorBuildSettings:
  m_ObjectHideFlags: 0
  serializedVersion: 2
  m_Scenes:
  - enabled: 1
    path: Assets/Scenes/MainMenu.unity
    guid: 890a8b458e3862143bd81477df7cf82e
  - enabled: 1
    path: Assets/Scenes/Scenes 01.unity
    guid: 4ae328493ae0cdb428351cb865513754
  m_configObjects: {}
